…
-   (5 points) Write a SAS code to print observations from observation
    500 to observation 550 of the following variables ~~while changing
    the orientation of the variable name headings to vertical~~:
    1.  Age (variable name “`age`”)  
    2.  Language primarily spoken at home (variable name
        “`other_language_at_home`”)  
    3.  Body Mass Index (variable name “`bmxbmi`”)

``` r
hw1 %>% slice(500:549)
```

    ## # A tibble: 50 x 13
    ##     seqn riagendr bmxwt bmxht bmxbmi acd011a acd011b acd011c acd040 acd110
    ##    <dbl>    <dbl> <dbl> <dbl>  <dbl>   <dbl>   <dbl>   <dbl>  <dbl>  <dbl>
    ##  1 83863        1  95.8  176.   31.1      NA      NA      NA      2     NA
    ##  2 83864        1  19.5  112.   15.7       1      NA      NA     NA     NA
    ##  3 83865        2  39.7  156.   16.3       1      NA      NA     NA     NA
    ##  4 83866        1  88    169.   30.7       1      NA      NA     NA     NA
    ##  5 83867        1  72.3  174.   23.9       1      NA      NA     NA     NA
    ##  6 83868        2  43.2  146.   20.4      NA      NA      NA      5     NA
    ##  7 83869        2  61.3  160.   23.9       1      NA      NA     NA     NA
    ##  8 83870        1  82.4  170.   28.6      NA      NA      NA      2     NA
    ##  9 83871        2  53.7  140.   27.4      NA      NA      NA      1     NA
    ## 10 83872        1  67.2  170    23.3      NA      NA      NA      2     NA
    ## # … with 40 more rows, and 3 more variables: other_language_at_home <dbl>,
    ## #   hiq011 <dbl>, age <dbl>
…
